^C:\USERS\AGGREY\DESKTOP\FOX VALLEY TECH COLLEGE\FALL 2020 FVTC\C++\WEEK 3\PLAYINGCARDS\PLAYINGCARDSUI\X64\DEBUG\MAIN.OBJ
/OUT:"C:\USERS\AGGREY\DESKTOP\FOX VALLEY TECH COLLEGE\FALL 2020 FVTC\C++\WEEK 3\PLAYINGCARDS\X64\DEBUG\PLAYINGCARDSUI.EXE" /INCREMENTAL /NOLOGO KERNEL32.LIB USER32.LIB GDI32.LIB WINSPOOL.LIB COMDLG32.LIB ADVAPI32.LIB SHELL32.LIB OLE32.LIB OLEAUT32.LIB UUID.LIB ODBC32.LIB ODBCCP32.LIB /MANIFEST /MANIFESTUAC:"level='asInvoker' uiAccess='false'" /manifest:embed /DEBUG:FASTLINK /PDB:"C:\USERS\AGGREY\DESKTOP\FOX VALLEY TECH COLLEGE\FALL 2020 FVTC\C++\WEEK 3\PLAYINGCARDS\X64\DEBUG\PLAYINGCARDSUI.PDB" /SUBSYSTEM:CONSOLE /TLBID:1 /DYNAMICBASE /NXCOMPAT /IMPLIB:"C:\USERS\AGGREY\DESKTOP\FOX VALLEY TECH COLLEGE\FALL 2020 FVTC\C++\WEEK 3\PLAYINGCARDS\X64\DEBUG\PLAYINGCARDSUI.LIB" /MACHINE:X64 X64\DEBUG\MAIN.OBJ
^C:\USERS\AGGREY\DESKTOP\FOX VALLEY TECH COLLEGE\FALL 2020 FVTC\C++\WEEK 3\PLAYINGCARDSDEMO\PLAYINGCARDSUI\X64\DEBUG\MAIN.OBJ
/OUT:"C:\USERS\AGGREY\DESKTOP\FOX VALLEY TECH COLLEGE\FALL 2020 FVTC\C++\WEEK 3\PLAYINGCARDSDEMO\X64\DEBUG\PLAYINGCARDSUI.EXE" /INCREMENTAL /NOLOGO KERNEL32.LIB USER32.LIB GDI32.LIB WINSPOOL.LIB COMDLG32.LIB ADVAPI32.LIB SHELL32.LIB OLE32.LIB OLEAUT32.LIB UUID.LIB ODBC32.LIB ODBCCP32.LIB /MANIFEST /MANIFESTUAC:"level='asInvoker' uiAccess='false'" /manifest:embed /DEBUG:FASTLINK /PDB:"C:\USERS\AGGREY\DESKTOP\FOX VALLEY TECH COLLEGE\FALL 2020 FVTC\C++\WEEK 3\PLAYINGCARDSDEMO\X64\DEBUG\PLAYINGCARDSUI.PDB" /SUBSYSTEM:CONSOLE /TLBID:1 /DYNAMICBASE /NXCOMPAT /IMPLIB:"C:\USERS\AGGREY\DESKTOP\FOX VALLEY TECH COLLEGE\FALL 2020 FVTC\C++\WEEK 3\PLAYINGCARDSDEMO\X64\DEBUG\PLAYINGCARDSUI.LIB" /MACHINE:X64 X64\DEBUG\MAIN.OBJ
